﻿[
  {
      "_id":"c-05",
      "_parentId":"b-05",
      "_type":"component",
      "_component":"text",
      "_classes":"",
      "_layout":"full",
      "title":"Introducción",
      "displayTitle":"",
      "body":"Tus objetivos comerciales probablemente son tan diversos como lo es tu personal. Cualquiera sea tu objetivo, es decir, aumentar el reconocimiento de marca, abrir un diálogo con los clientes o conseguir que más personas visiten tu sitio web para hacer una compra, Facebook tiene una solución de video para ti. Lo único que debes decidir es dónde colocar el video y qué formato usar. Es así de fácil.",
      "instruction":"",
      "_pageLevelProgress": {
          "_isEnabled": true
      }
  },
  {
      "_id":"c-10",
      "_parentId":"b-10",
      "_type":"component",
      "_component":"text",
      "_classes":"",
      "_layout":"right",
      "title":"",
      "displayTitle":"",
      "body":"El consumo de videos está aumentando de manera exponencial. Para 2020, el 75% de todos los datos del celular se consumirá reproduciendo videos.<sup>1</sup> Facebook también adoptó un enfoque basado en el video a fin de crear las experiencias de video más óptimas para las personas, los editores, los creadores y los anunciantes.<br><br>En el caso de los anunciantes, este cambio en cuanto al consumo, la creación y el descubrimiento genera una excelente oportunidad para contar historias significativas y conectarse con personas durante el día.<br><br>Te alentamos a completar este curso de fundamentos para que te familiarices con el lenguaje y los conceptos relativos a los anuncios con video de Facebook. Durante el curso, compartiremos algunos recursos, de modo que puedas seleccionar los temas más relevantes según tus necesidades y centrarte en ellos. Y si necesitas más contenido técnico, también te proporcionaremos enlaces a este material.<br><br>Este curso te permitirá:<br><br><ul><li>Comprender las diferencias entre las plataformas, las ubicaciones y los formatos que tenemos</li><li>Conocer los diversos formatos de contenido que puedes usar para crear anuncios con video</li><li>Aprender a medir la eficacia que la publicidad con video tiene en el público objetivo</li></ul>",
      "instruction":"",
      "_pageLevelProgress": {
          "_isEnabled": false
      }
  },
  {
      "_id":"c-11",
      "_parentId":"b-10",
      "_type":"component",
      "_component":"framed-video",
      "_classes":"",
      "_layout":"left",
      "title":"",
      "displayTitle":"",
      "body":"",
      "_videoPosition":"top",
      "_componentHeight":"612",
      "_videoPt":{"x":"0px","y":"0px"},
      "_showControls":true,
      "_mute":false,
      "instruction":"",
      "_items": [
          {
              "video":  "<video controls poster='course/en/images/01_introduction/waterford_lux_resort.png' id='vid' width='300px' controls='controls'><source src='course/en/video/01_introduction/waterford_lux_resort.mp4' type='video/mp4'></video>"
          }

      ]
  },
  {
      "_id":"c-20",
      "_parentId":"b-20",
      "_type":"component",
      "_component":"text",
      "_classes":"",
      "_layout":"full",
      "title":"",
      "displayTitle":"",
      "body":"<cite><sup>1</sup>Cisco Visual Networking Index: Global Mobile Data Traffic Forecast Update, 2016-2021 White Paper, marzo de 2017.</cite>",
      "instruction":"",
      "_pageLevelProgress": {
          "_isEnabled": false
      }
  },
  {
    "_id": "c-30",
    "_parentId": "b-30",
    "_type": "component",
    "_component": "co-jump",
    "_classes": "color-test",
    "_preLinkBody": "Vamos a empezar describiendo ",
    "_linkBody": "dónde se muestran los anuncios",
    "_postLinkBody": ".",
    "_link": "#/id/co-100",
    "_graphic": "adapt/css/assets/icon_nextPage.png",
    "_pageLevelProgress": {
        "_isEnabled": false
    }
  },
  {
      "_id":"c-35",
      "_parentId":"b-35",
      "_type":"component",
      "_component":"text",
      "_classes":"",
      "_layout":"full",
      "title":"",
      "displayTitle":"",
      "body":"Puedes publicar anuncios con video en toda la familia de servicios y aplicaciones de Facebook. Cada plataforma, las ubicaciones que la acompañan y los formatos de contenido representan una experiencia de usuario un tanto diferente. Veamos los aspectos básicos.",
      "instruction":"",
      "_pageLevelProgress": {
          "_isEnabled": false
      }
  },
  {
      "_id":"c-40",
      "_parentId":"b-40",
      "_type":"component",
      "_component":"graphic",
      "_classes":"",
      "_layout":"full",
      "title":"Relación entre plataformas, ubicaciones y formatos",
      "displayTitle":"Relación entre plataformas, ubicaciones y formatos",
      "body":"",
      "instruction":"",
      "_pageLevelProgress": {
        "_isEnabled": false
      },
      "_graphic": {
          "alt": "Captura de pantalla de “Editar ubicación”",
          "src": "course/en/images/02_understanding_where_your_adsappear/edit_placement_screenshot.png",
          "attribution":""
      }
  },
  {
      "_id":"c-45",
      "_parentId":"b-40",
      "_type":"component",
      "_component":"text",
      "_classes":"",
      "_layout":"full",
      "title":"",
      "displayTitle":"",
      "body":"Una vez que comprendas la diferencia entre <b>plataformas</b>, <b>ubicaciones</b> y <b>formatos</b>, podrás crear campañas eficaces que cumplan tus objetivos comerciales.<br><br><ul><li>La <strong>plataforma</strong> es la aplicación o el servicio en donde quieres que aparezca tu anuncio con video: <strong>Facebook, Instagram</strong> y <strong>Audience Network</strong>.</li></ul><ul><li>La <strong>ubicación</strong> determina en qué lugar de la plataforma se mostrará el video. Digamos que quieres que tu anuncio con video se ponga en circulación en las <strong>noticias de Instagram.</strong> <strong>Instagram</strong> es la <i>plataforma</i>, mientras que las <strong>noticias</strong> constituyen la <i>ubicación</i> dentro de la plataforma.</li></ul><ul><li>El <strong>formato</strong> es la forma de contenido que adquiere tu anuncio con video. Más sencillamente, se trata de cómo quieres que luzca el video. Por ejemplo, un <strong>solo video</strong>, una <strong>secuencia</strong>, una <strong>presentación</strong> o una <strong>colección.</strong></li></ul><br>Dedica un momento a ver qué ubicaciones se incluyen en cada plataforma.",
      "instruction":"",
      "_pageLevelProgress": {
          "_isEnabled": false
      }
  },
  {
      "_id":"c-60",
      "_parentId":"b-60",
      "_type":"component",
      "_component":"graphic",
      "_classes":"",
      "_layout":"full",
      "title":"Facebook",
      "displayTitle":"Facebook",
      "body":"<img src='course/en/images/02_understanding_where_your_adsappear/platforms_facebook_dropdown.png'/><br><br><strong>Secciones de noticias:</strong> esta ubicación incluye tanto la sección de noticias de la computadora como la del celular, y es donde las personas descubren contenido e interactúan con diversos medios a través de texto, fotos y videos que generan sus amigos, familiares y los negocios. La sección de noticias incluye actualizaciones de estado, fotos, videos, enlaces, actividad de aplicaciones y reacciones de personas, páginas y grupos que puedes seguir en Facebook.<br><br><strong>Consejo para el video:</strong> los anuncios con video en la sección de noticias pueden ser horizontales, cuadrados o verticales, pero recomendamos el formato vertical, de modo que coincida con la manera en la que las personas ven videos en la sección de noticias.",
      "instruction":"",
      "_pageLevelProgress": {
        "_isEnabled": true
      },
      "_graphic": {
          "alt": "Captura de pantalla que resalta las ubicaciones de anuncios de Facebook",
          "src": "course/en/images/02_understanding_where_your_adsappear/facebook_newsfeed_adplacements_highlighted.png",
          "attribution":""
      }
  },
  {
      "_id":"c-70",
      "_parentId":"b-60",
      "_type":"component",
      "_component":"text",
      "_classes":"",
      "_layout":"full",
      "title":"Videos instream",
      "displayTitle":"",
      "body":"<strong>Videos instream:</strong> la ubicación de anuncios con video instream te permite entregar anuncios con video de entre 5 y 15 segundos durante la reproducción a personas que miran videos en Facebook. La experiencia de un anuncio con video instream se asemeja a la de una pausa comercial durante un programa de televisión, en la que regresas al programa una vez que esta finaliza.<br><br><strong>Consejo para el video:</strong> los anuncios con video instream se presentan en formato cuadrado, incluso si subes un anuncio vertical. Asimismo, se debe incluir sonido.<hr><strong>Videos sugeridos:</strong> esta ubicación te permite llegar a públicos mediante la entrega de anuncios con video en un reproductor de videos sugeridos. Estos anuncios con video se basan en el público, así que tal como en la sección de noticias, las personas en Facebook verán diferentes videos según sus intereses.",
      "instruction":"",
      "_pageLevelProgress": {
          "_isEnabled": false
      }
  },
  {
      "_id":"c-80",
      "_parentId":"b-70",
      "_type":"component",
      "_component":"graphic",
      "_classes":"",
      "_layout":"full",
      "title":"Instagram",
      "displayTitle":"Instagram",
      "body":"",
      "instruction":"",
      "_pageLevelProgress": {
        "_isEnabled": true
      },
      "_graphic": {
          "alt": "Captura de pantalla de menú desplegable de la plataforma de Instagram",
          "src": "course/en/images/02_understanding_where_your_adsappear/platforms_instagram_dropdown.png",
          "attribution":""
      }
  },
  {
      "_id":"c-85",
      "_parentId":"b-80",
      "_type":"component",
      "_component":"text",
      "_classes":"",
      "_layout":"full",
      "title":"",
      "displayTitle":"",
      "body":"<strong>Noticias:</strong> similar a la sección de noticias de Facebook, los anuncios con video pueden aparecer en las noticias de Instagram. Cuando un usuario toque para activar el sonido de un video mientras se desplaza por las noticias, los videos de toda la sesión de navegación se reproducirán automáticamente con el sonido activado.",
      "instruction":"",
      "_pageLevelProgress": {
          "_isEnabled": false
      }
  },
  {
      "_id":"c-95",
      "_parentId":"b-90",
      "_type":"component",
      "_component":"text",
      "_classes":"",
      "_layout":"left",
      "title":"",
      "displayTitle":"",
      "body":"<strong>Instagram Stories:</strong>  Instagram Stories es un espacio que permite a las personas compartir todos los momentos de su día, no solo los que quieren conservar en su perfil. En las historias, las personas pueden compartir múltiples fotos y videos que aparecen en formato de presentación y desaparecen después de transcurrido un período establecido. Puedes crear anuncios que se muestren en Instagram Stories. Para ello, puedes subir tanto una foto como un video (de hasta 15 segundos de duración) que aparecerá entre las historias de las personas. En los anuncios que aparecen en las historias solo se pueden incluir videos e imágenes verticales con una relación de aspecto de 9:16 que cumplan con las especificaciones de formato.<br><br>Las historias de Instagram se pueden ver tanto en el celular como en la computadora, pero actualmente los anuncios solo pueden aparecer en el celular.<br><br>Seguramente te preguntarás qué sentido tiene colocar un anuncio de historias si desaparecerá luego de que transcurra un período establecido. ¿Y si quisieras publicar una oferta breve repentina de tu producto más popular? Cuenta una historia, por supuesto.<br><br>Observa cómo Hutch, una empresa de diseño de interiores, usó Instagram Stories para mostrar a los espectadores diferentes ideas de decoración para el hogar.",
      "instruction":"",
      "_pageLevelProgress": {
          "_isEnabled": false
      }
  },
  {
      "_id":"c-100",
      "_parentId":"b-90",
      "_type":"component",
      "_component":"framed-video",
      "_classes":"",
      "_layout":"right",
      "title":"",
      "displayTitle":"",
      "body":"",
      "_videoPosition":"top",
      "_componentHeight":"488",
      "_videoPt":{"x":"0px","y":"0px"},
      "_showControls":true,
      "_mute":false,
      "instruction":"",
      "_items": [
          {
              "video":  "<video controls poster='course/en/images/02_understanding_where_your_adsappear/hutch_insta_story_example_poster.png' id='vid' width='240px' controls='controls'><source src='course/en/video/02_understanding_where_your_adsappear/hutch_insta_story_example.mp4' type='video/mp4'></video>"
          }

      ]
  },
  {
      "_id":"c-120",
      "_parentId":"b-120",
      "_type":"component",
      "_component":"graphic",
      "_classes":"",
      "_layout":"full",
      "title":"Audience Network",
      "displayTitle":"Audience Network",
      "body":"",
      "instruction":"",
      "_pageLevelProgress": {
        "_isEnabled": true
      },
      "_graphic": {
          "alt": "Captura de pantalla de menú desplegable de la plataforma de Audience Network",
          "src": "course/en/images/02_understanding_where_your_adsappear/platforms_audience_network_drowpdown.png",
          "attribution":""
      }
  },
  {
      "_id":"c-125",
      "_parentId":"b-120",
      "_type":"component",
      "_component":"text",
      "_classes":"",
      "_layout":"full",
      "title":"",
      "displayTitle":"",
      "body":"Con Audience Network, puedes ampliar tus campañas publicitarias más allá de Facebook y llegar a tu público en sitios web y aplicaciones desde cualquier dispositivo, como computadoras, celulares y televisores conectados. Es posible que esta función aún no esté disponible en todo el mundo. Usamos la misma segmentación, medición y entrega de Facebook para asegurarnos de que cada anuncio de Audience Network te ayude a alcanzar los objetivos comerciales con el menor costo.",
      "instruction":"",
      "_pageLevelProgress": {
          "_isEnabled": false
      }
  },
  {
      "_id":"c-130",
      "_parentId":"b-130",
      "_type":"component",
      "_component":"twoColumn",
      "_classes":"clearFix",
      "_layout":"full",
      "title":"Anuncios nativos, banners y anuncios intersticiales",
      "displayTitle":"",
      "body":"",
      "instruction":"",
      "fontSize":"4vmin",
      "lineHeight":"",
      "fontColor":"#ffffff",
      "leftColumnWidth": "35%",
      "rightColumnWidth": "65%",
      "marginTop": "90px",
      "imageLayout": "left",
      "text": "<b>Anuncios nativos, banners y anuncios intersticiales</b>: estos anuncios solo están disponibles en Audience Network. Los editores determinan el anuncio más adecuado para la aplicación en la que aparecerá. La apariencia y el tamaño se pueden personalizar.",
      "_graphic": {
          "alt": "Captura de pantalla de iPhone que muestra un modelo de anuncio nativo para celulares",
          "src": "course/en/images/02_understanding_where_your_adsappear/nativeads_mockup.jpg",
          "attribution":""
      },
      "imageHeading": "",
      "imageSubHeading": ""
  },
  {
      "_id":"c-140",
      "_parentId":"b-130",
      "_type":"component",
      "_component":"twoColumn",
      "_classes":"clearFix",
      "_layout":"full",
      "title":"",
      "displayTitle":"",
      "body":"",
      "instruction":"",
      "fontSize":"4vmin",
      "lineHeight":"",
      "fontColor":"#ffffff",
      "leftColumnWidth": "35%",
      "rightColumnWidth": "65%",
      "marginTop": "50px",
      "imageLayout": "right",
      "text": "Los editores pueden incluir banners publicitarios en Audience Network a través de la aplicación y actualizarlos para garantizar que los usuarios vean el anuncio con una frecuencia que resulte lógica para la aplicación.",
      "_graphic": {
          "alt": "Ejemplo ilustrativo de banner publicitario",
          "src": "course/en/images/02_understanding_where_your_adsappear/bannerad_example.jpg",
          "attribution":""
      },
      "imageHeading": "",
      "imageSubHeading": ""
  },
  {
      "_id":"c-150",
      "_parentId":"b-130",
      "_type":"component",
      "_component":"twoColumn",
      "_classes":"clearFix",
      "_layout":"full",
      "title":"",
      "displayTitle":"",
      "body":"",
      "instruction":"",
      "fontSize":"4vmin",
      "lineHeight":"",
      "fontColor":"#ffffff",
      "leftColumnWidth": "35%",
      "rightColumnWidth": "65%",
      "marginTop": "80px",
      "imageLayout": "left",
      "text": "Los anuncios intersticiales son anuncios en pantalla completa que pueden resultar efectivos a la hora de captar la atención de una persona. Los editores recomiendan este tipo de anuncio para las pausas en los juegos o para los momentos en los que haya una pausa natural en el flujo de una aplicación.",
      "_graphic": {
          "alt": "Ejemplo ilustrativo de anuncio intersticial",
          "src": "course/en/images/02_understanding_where_your_adsappear/interstitialad_example.jpg",
          "attribution":""
      },
      "imageHeading": "",
      "imageSubHeading": ""
  },
  {
      "_id":"c-160",
      "_parentId":"b-160",
      "_type":"component",
      "_component":"text",
      "_classes":"",
      "_layout":"full",
      "title":"Videos instream",
      "displayTitle":"",
      "body":"<strong>Videos instream</strong>: la ubicación de videos instream en Audience Network muestra anuncios con video a las personas mientras ven este tipo de contenido en sitios web y aplicaciones fuera de Facebook. Tus anuncios con video se mostrarán antes de la reproducción, o durante ella, de contenido de video que las personas hayan elegido ver en la aplicación o el sitio web del editor de Audience Network. Para entregar anuncios en la ubicación de videos instream en Audience Network, tu video debe incluir sonido y tener una duración de entre 5 y 30 segundos si eliges únicamente la ubicación de videos instream o entre 5 y 120 segundos si eliges la opción de ubicaciones automáticas.",
      "instruction":"",
      "_pageLevelProgress": {
          "_isEnabled": false
      }
  },
  {
      "_id":"c-180",
      "_parentId":"b-180",
      "_type":"component",
      "_component":"twoColumn",
      "_classes":"clearFix",
      "_layout":"full",
      "title":"Videos con premio",
      "displayTitle":"",
      "body":"",
      "instruction":"",
      "fontSize":"4vmin",
      "lineHeight":"",
      "fontColor":"#ffffff",
      "leftColumnWidth": "45%",
      "rightColumnWidth": "55%",
      "marginTop": "50px",
      "imageLayout": "left",
      "text": "<strong>Videos con premio</strong>: estos videos permiten a los usuarios recibir algo de valor (divisa virtual, artículos en la aplicación o contenido exclusivo) si optan por mirar el anuncio con video de 15 a 30 segundos que no se puede omitir.",
      "_graphic": {
          "alt": "GIF animado del video con premio",
          "src": "course/en/images/02_understanding_where_your_adsappear/rewarded_video.gif",
          "attribution":""
      },
      "imageHeading": "",
      "imageSubHeading": ""
  },
  {
      "_id":"c-190",
      "_parentId":"b-180",
      "_type":"component",
      "_component":"text",
      "_classes":"",
      "_layout":"full",
      "title":"",
      "displayTitle":"",
      "body":"Para obtener más información sobre las capacidades de Audience Network, puedes revisar los <a href='https://www.facebookblueprint.com/student/catalog/list?search=Audience%20Network' target='_blank'>cursos de Blueprint</a> relacionados con este tema.",
      "instruction":"",
      "_pageLevelProgress": {
          "_isEnabled": false
      }
  },
  {
    "_id": "c-250",
    "_parentId": "b-250",
    "_type": "component",
    "_component": "co-jump",
    "_classes": "color-test",
    "_preLinkBody": "Ahora que sabes dónde pueden aparecer tus anuncios cuando usas un video, vamos a ver los formatos asociados con ellos. Ahora veamos los",
    "_linkBody": "formatos de anuncios",
    "_postLinkBody": ".",
    "_link": "#/id/co-150",
    "_graphic": "adapt/css/assets/icon_nextPage.png",
    "_pageLevelProgress": {
        "_isEnabled": false
    }
  },
  {
      "_id":"c-260",
      "_parentId":"b-260",
      "_type":"component",
      "_component":"text",
      "_classes":"",
      "_layout":"full",
      "title":"",
      "displayTitle":"",
      "body":"Exploramos las cuatro plataformas y las diversas ubicaciones dentro de ellas. Ahora veamos los distintos formatos de anuncios con video que puedes elegir incluir en las plataformas y ubicaciones. Hay una advertencia: algunos formatos de anuncios están restringidos en función de la plataforma o la ubicación.",
      "instruction":"",
      "_pageLevelProgress": {
          "_isEnabled": false
      }
  },
  {
      "_id":"c-270",
      "_parentId":"b-270",
      "_type":"component",
      "_component":"text",
      "_classes":"",
      "_layout":"full",
      "title":"Video (sección de noticias/instream)",
      "displayTitle":"Video (sección de noticias/instream)",
      "body":"",
      "instruction":"",
      "_pageLevelProgress": {
          "_isEnabled": true
      }
  },
  {
      "_id":"c-271",
      "_parentId":"b-270",
      "_type":"component",
      "_component":"text",
      "_classes":"",
      "_layout":"right",
      "title":"",
      "displayTitle":"",
      "body":"Estás acostumbrado a ver, y probablemente a crear, videos con una relación de aspecto vertical, horizontal o cuadrada. Los anuncios con enlace de video y los anuncios sin enlaces tienen diferentes relaciones de aspecto. Para empezar, solo necesitas un smartphone con cámara, aplicaciones creativas y un poco de inspiración. El video estándar es la base con la que puedes crear una gran cantidad de formatos, que veremos a continuación.<br><br>A modo de recordatorio, los anuncios con video estándar pueden aparecer en Facebook, Audience Network e Instagram. También puedes agregar botones de llamada a la acción en el video si quieres generar una acción concreta, como “Comprar”, “Me gusta esta página” o “Más información”.",
      "instruction":"",
      "_pageLevelProgress": {
          "_isEnabled": false
      }
  },
  {
      "_id":"c-272",
      "_parentId":"b-270",
      "_type":"component",
      "_component":"framed-video",
      "_classes":"",
      "_layout":"left",
      "title":"",
      "displayTitle":"",
      "body":"",
      "_videoPosition":"top",
      "_componentHeight":"501",
      "_videoPt":{"x":"0px","y":"0px"},
      "_showControls":true,
      "_mute":false,
      "instruction":"",
      "_items": [
          {
              "video":  "<video controls poster='course/en/images/03_adformats/cheetos.png' id='vid' width='300px' controls='controls'><source src='course/en/video/03_adformats/cheetos.mp4' type='video/mp4'></video>"
          }

      ]
  },
  {
      "_id":"c-280",
      "_parentId":"b-280",
      "_type":"component",
      "_component":"graphic",
      "_classes":"",
      "_layout":"full",
      "title":"",
      "displayTitle":"",
      "body":"Hay dos activos de video estándar que merecen su propia descripción:<br><br><ul><li>Los <strong>GIF</strong> son imágenes gráficas que se mueven con movimientos repetitivos.</li><li>Las <strong>cinemagrafías</strong>, como la que se muestra debajo, son imágenes estáticas con solo un leve movimiento repetitivo.</li></ul>",
      "instruction":"",
      "_pageLevelProgress": {
        "_isEnabled": false
      },
      "_graphic": {
          "alt": "Ejemplo de cinemagrafía con GIF animado",
          "src": "course/en/images/03_adformats/cinemagraph_example.gif",
          "attribution":""
      }
  },
  {
      "_id":"c-290",
      "_parentId":"b-290",
      "_type":"component",
      "_component":"twoColumn",
      "_classes":"clearFix",
      "_layout":"full",
      "title":"Secuencia",
      "displayTitle":"Secuencia",
      "body":"",
      "instruction":"",
      "fontSize":"4vmin",
      "lineHeight":"",
      "fontColor":"#ffffff",
      "leftColumnWidth": "45%",
      "rightColumnWidth": "55%",
      "marginTop": "50px",
      "imageLayout": "left",
      "text": "El formato por secuencia te permite mostrar hasta diez videos, imágenes o una combinación de ambos en un solo anuncio. Cada imagen de la secuencia tiene una llamada a la acción diferente. Con más espacio para el contenido dentro del anuncio, puedes destacar diferentes productos, mostrar detalles específicos de un producto o contar una historia sobre tu marca que se desarrolle a través de cada imagen de la secuencia.<br><br>Los anuncios por secuencia están disponibles en Facebook, Instagram y Audience Network, lo que te permite llegar a más personas en más lugares con la llamada a la acción que seleccionaste.",
      "_graphic": {
          "alt": "Ejemplo de anuncio por secuencia de Kiterly con GIF animado",
          "src": "course/en/images/03_adformats/kiterly_carouselad_example.gif",
          "attribution":""
      },
      "imageHeading": "",
      "imageSubHeading": ""
  },
  {
      "_id":"c-300",
      "_parentId":"b-300",
      "_type":"component",
      "_component":"text",
      "_classes":"",
      "_layout":"full",
      "title":"",
      "displayTitle":"",
      "body":"Obtén más información en el curso <a href='https://fb.me/blueprint-carousel' target='_blank'>Contar historias con el formato por secuencia</a>.",
      "instruction":"",
      "_pageLevelProgress": {
          "_isEnabled": false
      }
  },
  {
      "_id":"c-310",
      "_parentId":"b-310",
      "_type":"component",
      "_component":"text",
      "_classes":"",
      "_layout":"full",
      "title":"Presentación",
      "displayTitle":"Presentación",
      "body":"",
      "instruction":"",
      "_pageLevelProgress": {
          "_isEnabled": true
      }
  },
  {
      "_id":"c-311",
      "_parentId":"b-310",
      "_type":"component",
      "_component":"text",
      "_classes":"",
      "_layout":"right",
      "title":"",
      "displayTitle":"",
      "body":"Los anuncios con presentación son un formato de anuncio agradable y rentable que creas con un conjunto de fotos o un video existente. Gracias a Facebook, es fácil crear y editar anuncios con presentación. Incluso puedes usar superposición de texto y audio. Los anuncios con presentación se optimizan para cargarse más rápido y consumen menos datos que un archivo de video promedio. Por lo tanto, pueden reproducirse en áreas con bajo ancho de banda.",
      "instruction":"",
      "_pageLevelProgress": {
          "_isEnabled": false
      }
  },
  {
      "_id":"c-312",
      "_parentId":"b-310",
      "_type":"component",
      "_component":"framed-video",
      "_classes":"",
      "_layout":"left",
      "title":"",
      "displayTitle":"",
      "body":"",
      "_videoPosition":"top",
      "_componentHeight":"501",
      "_videoPt":{"x":"0px","y":"0px"},
      "_showControls":true,
      "_mute":false,
      "instruction":"",
      "_items": [
          {
              "video":  "<video controls poster='course/en/images/03_adformats/slide_show_ad_example_stance.png' id='vid' width='300px' controls='controls'><source src='course/en/video/03_adformats/slide_show_ad_example_stance.mp4' type='video/mp4'></video>"
          }

      ]
  },
  {
      "_id":"c-320",
      "_parentId":"b-320",
      "_type":"component",
      "_component":"text",
      "_classes":"",
      "_layout":"full",
      "title":"Colección",
      "displayTitle":"Colección",
      "body":"",
      "instruction":"",
      "_pageLevelProgress": {
          "_isEnabled": true
      }
  },
  {
      "_id":"c-321",
      "_parentId":"b-320",
      "_type":"component",
      "_component":"text",
      "_classes":"",
      "_layout":"right",
      "title":"",
      "displayTitle":"",
      "body":"Una colección es un formato exclusivo para celulares disponible en Facebook, que combina un video o una foto sobre cuatro imágenes de productos en la sección de noticias.<br><br>Cuando las personas tocan un producto, se dirigen a una página de detalles en la aplicación o el sitio web para celulares. Asimismo, pueden hacer clic en “Ver más” para explorar otros productos. Las personas que llegan a la aplicación o al sitio para celulares del negocio son clientes potenciales, muchos de los cuales tienen probabilidades de realizar una conversión.",
      "instruction":"",
      "_pageLevelProgress": {
          "_isEnabled": false
      }
  },
  {
      "_id":"c-322",
      "_parentId":"b-320",
      "_type":"component",
      "_component":"framed-video",
      "_classes":"",
      "_layout":"left",
      "title":"",
      "displayTitle":"",
      "body":"",
      "_videoPosition":"top",
      "_componentHeight":"588",
      "_videoPt":{"x":"0px","y":"0px"},
      "_showControls":true,
      "_mute":false,
      "instruction":"",
      "_items": [
          {
              "video":  "<video controls poster='course/en/images/03_adformats/dollarshaveclub.png' id='vid' width='300px' controls='controls'><source src='course/en/video/03_adformats/dollarshaveclub.mp4' type='video/mp4'></video>"
          }

      ]
  },
  {
      "_id":"c-325",
      "_parentId":"b-325",
      "_type":"component",
      "_component":"text",
      "_classes":"",
      "_layout":"full",
      "title":"",
      "displayTitle":"",
      "body":"Obtén más información en el curso <a href='https://fb.me/blueprint-collection' target='_blank'>Fomentar la inspiración y el descubrimiento de productos con el formato de anuncio de colección</a>.",
      "instruction":"",
      "_pageLevelProgress": {
          "_isEnabled": false
      }
  },
  {
      "_id":"c-330",
      "_parentId":"b-330",
      "_type":"component",
      "_component":"text",
      "_classes":"",
      "_layout":"full",
      "title":"Canvas",
      "displayTitle":"Canvas",
      "body":"",
      "instruction":"",
      "_pageLevelProgress": {
          "_isEnabled": true
      }
  },
  {
      "_id":"c-331",
      "_parentId":"b-330",
      "_type":"component",
      "_component":"text",
      "_classes":"",
      "_layout":"right",
      "title":"",
      "displayTitle":"",
      "body":"Canvas es una experiencia posterior al clic que te permite generar interés y guiar a los clientes hacia la llamada a la acción. Es una experiencia en pantalla completa para el celular que está disponible en todos los formatos de anuncios. Los espectadores en celulares pueden deslizar el dedo por estas experiencias de anuncios personalizadas en Facebook e Instagram, así como inclinarlas y ampliarlas.<br><br>Canvas te permite combinar videos, imágenes, contenido 360° y botones de llamada a la acción en un solo anuncio a fin de comunicar tu mensaje o contar la historia de tu marca. Además, es de carga rápida y se crea de forma sencilla.",
      "instruction":"",
      "_pageLevelProgress": {
          "_isEnabled": false
      }
  },
  {
      "_id":"c-332",
      "_parentId":"b-330",
      "_type":"component",
      "_component":"framed-video",
      "_classes":"",
      "_layout":"left",
      "title":"",
      "displayTitle":"",
      "body":"",
      "_videoPosition":"top",
      "_componentHeight":"603",
      "_videoPt":{"x":"0px","y":"0px"},
      "_showControls":true,
      "_mute":false,
      "instruction":"",
      "_items": [
          {
              "video":  "<video controls poster='course/en/images/03_adformats/seattle_sounders.png' id='vid' width='300px' controls='controls'><source src='course/en/video/03_adformats/seattle_sounders.mp4'></video>"
          }

      ]
  },
  {
      "_id":"c-340",
      "_parentId":"b-340",
      "_type":"component",
      "_component":"text",
      "_classes":"",
      "_layout":"full",
      "title":"",
      "displayTitle":"",
      "body":"Obtén más información en el curso <a href='https://fb.me/blueprint-fullscreencanvas' target='_blank'>Capta la atención de tu público con una experiencia de Canvas en pantalla completa</a>.",
      "instruction":"",
      "_pageLevelProgress": {
          "_isEnabled": false
      }
  },
  {
      "_id":"c-350",
      "_parentId":"b-350",
      "_type":"component",
      "_component":"text",
      "_classes":"",
      "_layout":"full",
      "title":"Formatos de contenido adicionales",
      "displayTitle":"Formatos de contenido adicionales",
      "body":"",
      "instruction":"",
      "_pageLevelProgress": {
          "_isEnabled": true
      }
  },
  {
      "_id":"c-360",
      "_parentId":"b-360",
      "_type":"component",
      "_component":"text",
      "_classes":"",
      "_layout":"left",
      "title":"",
      "displayTitle":"",
      "body":"<h2>Facebook Live</h2><br>Facebook Live es una manera divertida de interactuar con los seguidores que ya tienes y atraer a otros nuevos durante el video en vivo y después de este. Puedes compartir en vivo un evento al que asistes, organizar una sesión de preguntas y respuestas en vivo, así como mirar las reacciones en vivo que obtiene el video. Tus seguidores recibirán una notificación cuando estés por transmitir en vivo, de modo que puedan sumarse para ver y escuchar en tiempo real.<br><br>La marca Hershey usó Facebook Live para lanzar una nueva barra crocante con galleta. El evento se transmitió en vivo desde Hershey’s Chocolate World en Times Square.",
      "instruction":"",
      "_pageLevelProgress": {
          "_isEnabled": false
      }
  },
  {
      "_id":"c-361",
      "_parentId":"b-360",
      "_type":"component",
      "_component":"framed-video",
      "_classes":"",
      "_layout":"right",
      "title":"",
      "displayTitle":"",
      "body":"",
      "_videoPosition":"top",
      "_componentHeight":"603",
      "_videoPt":{"x":"0px","y":"0px"},
      "_showControls":true,
      "_mute":true,
      "instruction":"",
      "_items": [
          {
              "video":  "<video controls poster='course/en/images/03_adformats/hersheys_ad_video_comp.png' id='vid' width='300px' controls='controls'><source src='course/en/video/03_adformats/hersheys_ad_video_comp.mp4'></video>"
          }

      ]
  },
  {
      "_id":"c-380",
      "_parentId":"b-380",
      "_type":"component",
      "_component":"media",
      "_classes":"",
      "_layout":"full",
      "title":"",
      "displayTitle": "",
      "body": "<h2>Facebook 360</h2><br>Con Facebook 360, puedes contar y compartir historias, lugares y experiencias envolventes. Puedes crear una experiencia 360° de la misma manera en que creas un video de Facebook. A medida que se reproduce el video, las personas pueden ver cómo las escenas cobran vida. Gira tu dispositivo o arrastra la imagen con tu dedo para desplazarte y explorar cada ángulo del video. Considera llevarte a los usuarios a una excursión con <i>tus equipos</i> o a cualquier lugar que sería interesante explorar en tiempo real, y atrae interés en <i>tu marca</i>.<br><br>El contenido de Facebook 360° puede entregarse en la sección de noticias de Facebook y verse en la mayoría de los smartphones y las computadoras.",
      "instruction": "",
      "_setCompletionOn":"inview",
      "_useClosedCaptions":true,
      "_startLanguage":"es",
      "_media": {
          "mp4": "course/en/video/03_adformats/get_started360.mp4",
          "ogv": "",
          "poster": "course/en/video/03_adformats/360_video_poster.png",
          "cc": [
              {
                  "srclang": "es",
                  "src": "course/en/video/03_adformats/get_started360_mp4_20171113T0932_eng.es_LA.srt"
              }
          ]
      },
      "_transcript": {
          "_setCompletionOnView":false,
          "_inlineTranscript": false,
          "_externalTranscript": false,
          "inlineTranscriptButton": "Transcripción",
          "inlineTranscriptCloseButton": "Cerrar transcripción",
          "inlineTranscriptBody": "El texto de la transcripción debe incluirse aquí.",
          "transcriptLinkButton": "Transcripción",
          "transcriptLink": "assets/transcript.pdf"
      },
      "_playerOptions": {
          "poster": "",
          "showPosterWhenEnded": false,
          "defaultVideoWidth": 480,
          "defaultVideoHeight": 270,
          "videoWidth": -1,
          "videoHeight": -1,
          "defaultAudioWidth": 400,
          "defaultAudioHeight": 30,
          "defaultSeekBackwardInterval": "(media.duration * 0.05)",
          "defaultSeekForwardInterval": "(media.duration * 0.05)",
          "audioWidth": -1,
          "audioHeight": -1,
          "startVolume": 0.8,
          "loop": false,
          "autoRewind": true,
          "enableAutosize": true,
          "alwaysShowHours": false,
          "showTimecodeFrameCount": false,
          "framesPerSecond": 25,
          "autosizeProgress" : true,
          "alwaysShowControls": false,
          "hideVideoControlsOnLoad": false,
          "clickToPlayPause": true,
          "iPadUseNativeControls": false,
          "iPhoneUseNativeControls": false,
          "AndroidUseNativeControls": false,
          "features": ["playpause","current","progress","duration","tracks","volume","fullscreen"],
          "isVideo": true,
          "enableKeyboard": true,
          "pauseOtherPlayers": true,
          "startLanguage": "es",
          "tracksText": "mejs.i18n.t('Captions/Subtitles')",
          "hideCaptionsButtonWhenEmpty": true,
          "toggleCaptionsButtonWhenOnlyOne": false,
          "slidesSelector": ""
      }
  },
  {
      "_id":"c-390",
      "_parentId":"b-380",
      "_type":"component",
      "_component":"text",
      "_classes":"",
      "_layout":"full",
      "title":"",
      "displayTitle":"",
      "body":"Obtén más información en el curso <a href='https://fb.me/blueprint-facebook360' target='_blank'>Narración envolvente con Facebook 360</a>.",
      "instruction":"",
      "_pageLevelProgress": {
          "_isEnabled": false
      }
  },
  {
    "_id": "c-400",
    "_parentId": "b-400",
    "_type": "component",
    "_component": "co-jump",
    "_classes": "color-test",
    "_preLinkBody": "Ahora veamos ",
    "_linkBody": "los detalles y las especificaciones sobre los activos de video",
    "_postLinkBody": ".",
    "_link": "#/id/co-200",
    "_graphic": "adapt/css/assets/icon_nextPage.png",
    "_pageLevelProgress": {
        "_isEnabled": false
    }
  },
  {
      "_id":"c-405",
      "_parentId":"b-405",
      "_type":"component",
      "_component":"text",
      "_classes":"",
      "_layout":"full",
      "title":"",
      "displayTitle":"",
      "body":"¿Recuerdas las cintas de ocho canciones, los casetes, los CD o los CD con fotos? Estas fueron las primeras presentaciones que combinaban audio y video. Ahora los activos de video hacen referencia al tipo de video que Facebook aceptará para la ubicación y el formato. También incluimos consideraciones que debes tener en cuenta al crear anuncios con video.",
      "instruction":"",
      "_pageLevelProgress": {
          "_isEnabled": false
      }
  },
  {
      "_id":"c-410",
      "_parentId":"b-410",
      "_type":"component",
      "_component":"text",
      "_classes":"",
      "_layout":"full",
      "title":"Tipos de activos de video",
      "displayTitle":"Tipos de activos de video",
      "body":"Facebook recomienda como norma general los formatos <strong>MP4</strong> o <strong>MOV</strong>. <a href='https://www.facebook.com/help/218673814818907?hc_location=ufi' target='_blank'>Aquí</a> te mostramos una lista completa de los formatos aceptados en caso de que tu video se encuentre en un formato diferente.",
      "instruction":"",
      "_pageLevelProgress": {
          "_isEnabled": true
      }
  },
  {
      "_id":"c-420",
      "_parentId":"b-420",
      "_type":"component",
      "_component":"text",
      "_classes":"",
      "_layout":"full",
      "title":"Duración de los archivos de video",
      "displayTitle":"Duración de los archivos de video",
      "body":"Como regla general, los videos de 15 segundos o menos pueden transmitir <i>todo tu mensaje</i> en nuestras plataformas y son eficaces en el entorno del celular.<br><br>La duración máxima y mínima de los videos varía de 5 segundos a 120 minutos.<br><br>Si decides crear una presentación, puedes establecer el tiempo entre el que se reproducirán las imágenes. Se recomienda que uses entre tres y siete imágenes.",
      "instruction":"",
      "_pageLevelProgress": {
          "_isEnabled": true
      }
  },
  {
      "_id":"c-430",
      "_parentId":"b-430",
      "_type":"component",
      "_component":"text",
      "_classes":"",
      "_layout":"full",
      "title":"Relación de aspecto: requisitos y recomendaciones",
      "displayTitle":"Relación de aspecto: requisitos y recomendaciones",
      "body":"En ocasiones, una foto vale más que mil palabras. Debajo te mostramos cómo lucen las diferentes relaciones de aspecto en un dispositivo móvil.<div style='width:100%'><img src='course/en/images/04_video_assets_specifications_and_details/phone_size_ratios.png' alt=\"Imagen de la relación de aspecto en el teléfono\" style='float:left; width:100%; display:block'><div style='float:left; width:18%; text-align:center; font-size: 1.3vmin; margin: 0 1% 0 1%; font-weight:bold'>16:9<br />Horizontal completo/horizontal</div><!-- end textArea1 --><div style='float:left; width:10%; text-align:center; font-size: 1.3vmin; margin: 0 1% 0 1%; font-weight:bold'>1:2<br />Sección de noticias</div><!-- end textArea2 --><div style='float:left; width:19%; text-align:center; font-size: 1.3vmin; margin: 0 1% 0 1%; font-weight:bold'>1:1<br />Cuadrado</div><!-- end textArea3 --><div style='float:left; width:9%; text-align:center; font-size: 1.3vmin; margin: 0 1% 0 1%; font-weight:bold'>4:5<br />Vertical<br />(Instagram y Facebook)</div><!-- end textArea4 --><div style='float:left; width:19%; text-align:center; font-size: 1.3vmin; margin: 0 1% 0 1%; font-weight:bold'>2:3<br />Vertical<br />(Solo Facebook)</div><!-- end textArea5 --><div style='float:left; width:10%; text-align:center; font-size: 1.3vmin; margin: 0 1% 0 1%; font-weight:bold'>9:16<br />Vertical completo/vertical</div><!-- end textArea6 --></div><!-- end imageText wrapper -->",
      "instruction":"",
      "_pageLevelProgress": {
          "_isEnabled": true
      }
  },
  {
      "_id":"c-440",
      "_parentId":"b-440",
      "_type":"component",
      "_component":"text",
      "_classes":"",
      "_layout":"full",
      "title":"",
      "displayTitle":"",
      "body":"<strong>Nota:</strong> Para consultar el gráfico completo de requisitos de ubicaciones de video, relaciones de aspecto y duración, selecciona <a href='https://scontent-sea1-1.xx.fbcdn.net/v/t39.2365-6/20748461_1940877686194049_3269076913825513472_n.pdf?_nc_log=1&oh=4fda16824079fe4a7aa03c14bcddc42c&oe=5A19CEBF' target='_blank'>Gráfico de requisitos de video</a>.",
      "instruction":"",
      "_pageLevelProgress": {
          "_isEnabled": false
      }
  },
  {
    "_id":"c-450",
    "_parentId":"b-450",
    "_type":"component",
    "_component":"accordion",
    "_classes":"",
    "_layout":"full",
    "title": "Considera cómo quieres encuadrar tu historia visual",
    "displayTitle": "Considera cómo quieres encuadrar tu historia visual",
    "body": "Puedes definir visualmente la historia que pretendes contar. Mientras lo haces, te ofrecemos especificaciones de video para cada plataforma junto con sus definiciones para que analices. Haz clic en cada una de ellas para leer la descripción.",
    "instruction": "",
    "_items": [
      {
        "title": "<strong>Relación de aspecto para celulares</strong>",
        "body": "Diseña enfocándote en el celular. Maximiza el impacto mediante videos verticales en cualquier situación posible.",
        "_graphic": {
          "src": "",
          "alt": ""
        }
      },
      {
        "title": "<strong>Facebook</strong>",
        "body": "Cuando creas anuncios con video y sin enlaces en Facebook, te recomendamos el formato vertical completo (9:16). Cuando utilices la relación de aspecto de 9:16, asegúrate de que las partes más importantes del video también se muestren con la relación de aspecto de 2:3, ya que así es como aparecerá tu video en la sección de noticias del celular de Facebook. No obstante, si creas anuncios con video y con enlaces, estos se mostrarán en formato horizontal completo y se pueden ajustar a una relación de 4:5 para los anuncios verticales.<br><br>Si creas anuncios instream, te recomendamos que uses contenido con una relación de aspecto de 1:1 (cuadrado) o 16:9 (horizontal). El video 360° se presenta en 1:2, pero luego aparece en pantalla completa cuando se hace clic en él. Usa Creative Hub para ver cómo se mostrarán los anuncios.",
        "_graphic": {
          "src": "",
          "alt": ""
        }
      },
      {
        "title": "<strong>Instagram</strong>",
        "body": "Instagram admite relaciones de aspecto comprendidas entre 1.9:1 y 4:5 para los videos de la sección de noticias, sea cual sea su objetivo. En Instagram Stories solo se muestran videos en formato vertical completo (9:16).",
        "_graphic": {
          "src": "",
          "alt": ""
        }
      },
      {
        "title": "<strong>Facebook e Instagram</strong>",
        "body": "Para optimizar la ubicación de tus campañas de video tanto en Facebook como en Instagram, te recomendamos crear videos con una relación de aspecto de 4:5.",
        "_graphic": {
          "src": "",
          "alt": ""
        }
      },
      {
        "title": "<strong>Audience Network</strong>",
        "body": "En Audience Network, el objetivo de reproducciones de video admite las relaciones de aspecto 1:1 y 16:9 (formato horizontal en pantalla completa) para las ubicaciones instream.",
        "_graphic": {
          "src": "",
          "alt": ""
        }
      }
    ]
  },
  {
      "_id":"c-460",
      "_parentId":"b-460",
      "_type":"component",
      "_component":"text",
      "_classes":"",
      "_layout":"full",
      "title":"Cómo diseñar el video teniendo en cuenta el sonido",
      "displayTitle":"Cómo diseñar el video teniendo en cuenta el sonido",
      "body":"",
      "instruction":"",
      "_pageLevelProgress": {
          "_isEnabled": true
      }
  },
  {
      "_id":"c-461",
      "_parentId":"b-460",
      "_type":"component",
      "_component":"text",
      "_classes":"",
      "_layout":"right",
      "title":"",
      "displayTitle":"",
      "body":"Muchas personas usan dispositivos móviles en el trabajo o en lugares públicos, donde es probable que tengan desactivado el sonido. Debes asegurarte de que el mensaje del video se entienda con el sonido desactivado (utiliza subtítulos y superposición de texto), pero incluye sonido para enriquecer la experiencia de las personas que los vean de este modo.<br><br>La experiencia de Facebook demuestra que los anuncios con video subtitulado aumentan el tiempo de reproducción en un 12% en promedio.<sup>1</sup><br><br>Debes preparar tu video para que se vea con o sin sonido:<ul><li>Usa imágenes y contenido que comuniquen tu mensaje sin necesidad de usar sonido.</li><li>Usa subtítulos para que las personas capten lo que quieres transmitir.</li><li>Agrega superposiciones de texto a los videos.</li></ul>",
      "instruction":"",
      "_pageLevelProgress": {
          "_isEnabled": false
      }
  },
  {
      "_id":"c-462",
      "_parentId":"b-460",
      "_type":"component",
      "_component":"framed-video",
      "_classes":"",
      "_layout":"left",
      "title":"",
      "displayTitle":"",
      "body":"",
      "_videoPosition":"top",
      "_componentHeight":"597",
      "_videoPt":{"x":"0px","y":"0px"},
      "_showControls":true,
      "_mute":false,
      "instruction":"",
      "_items": [
          {
              "video":  "<video controls poster='course/en/images/04_video_assets_specifications_and_details/gaia.png' id='vid' width='300px' controls='controls'><source src='course/en/video/04_video_assets_specifications_and_details/gaia.mp4'></video>"
          }

      ]
  },
  {
      "_id":"c-470",
      "_parentId":"b-465",
      "_type":"component",
      "_component":"text",
      "_classes":"",
      "_layout":"full",
      "title":"",
      "displayTitle":"",
      "body":"Usa <a href='https://scontent-sea1-1.xx.fbcdn.net/v/t39.2365-6/20748461_1940877686194049_3269076913825513472_n.pdf?_nc_log=1&oh=4fda16824079fe4a7aa03c14bcddc42c&oe=5A19CEBF' target='_blank'>esta guía</a> para obtener información general integral de los requisitos para videos en la familia de servicios y aplicaciones de Facebook. También puedes obtener más información en <a href='https://fb.me/creative-considerations-video' target='_blank'>Alcanza tus objetivos con videos para celulares</a>.<hr><sup>1</sup><cite>Ganancias de Facebook del primer trimestre, abril de 2016.</cite>",
      "instruction":"",
      "_pageLevelProgress": {
          "_isEnabled": false
      }
  },
  {
    "_id": "c-480",
    "_parentId": "b-480",
    "_type": "component",
    "_component": "co-jump",
    "_classes": "color-test",
    "_preLinkBody": "Ahora veamos ",
    "_linkBody": "los resultados",
    "_postLinkBody": ", que te permiten determinar el impacto que tus anuncios con video tienen en el público objetivo.",
    "_link": "#/id/co-250",
    "_graphic": "adapt/css/assets/icon_nextPage.png",
    "_pageLevelProgress": {
        "_isEnabled": false
    }
  },
  {
      "_id":"c-490",
      "_parentId":"b-490",
      "_type":"component",
      "_component":"text",
      "_classes":"",
      "_layout":"full",
      "title":"",
      "displayTitle":"",
      "body":"Los resultados miden la eficacia de tus anuncios con video en Facebook, Instagram y Audience Network. El administrador de anuncios ofrece informes publicitarios que te permiten evaluar el número de personas que vieron el video, el tiempo durante el cual lo reprodujeron y si realizan o no una acción en función del botón de llamada a la acción que incluiste en él. Realiza un seguimiento de los resultados, ya que así conocerás mejor al público, obtendrás información sobre las ventas de productos y sabrás cuál es tu alcance.",
      "instruction":"",
      "_pageLevelProgress": {
          "_isEnabled": false
      }
  },
  {
      "_id":"c-500",
      "_parentId":"b-500",
      "_type":"component",
      "_component":"graphic",
      "_classes":"",
      "_layout":"full",
      "title":"Informes publicitarios en el administrador de anuncios",
      "displayTitle":"Informes publicitarios en el administrador de anuncios",
      "body":"Para consultar los resultados de videos en el administrador de anuncios, selecciona <strong>Columnas</strong> y luego <strong>Interacción con el video.</strong>",
      "instruction":"",
      "_pageLevelProgress": {
        "_isEnabled": true
      },
      "_graphic": {
          "alt": "Captura de pantalla de resultados de videos en el administrador de anuncios",
          "src": "course/en/images/05_metrics/adsmanager_video_metrics.png",
          "attribution":""
      }
  },
  {
      "_id":"c-520",
      "_parentId":"b-520",
      "_type":"component",
      "_component":"content-accordion",
      "_classes":"",
      "_layout":"full",
      "title": "Resultados",
      "displayTitle": "",
      "body": "Veamos lo que significan los resultados específicos.",
      "instruction": "",
      "_setCompletionOn":"inview",
      "_items": [
        {
          "alt": "Reproducciones de video de 10 segundos",
          "title": "Reproducciones de video de 10 segundos",
          "body": "Número de veces que se reprodujo tu video durante un total de 10 segundos o más, o durante el 97% de su duración total, lo que haya ocurrido primero."
        },
        {
          "alt": "Costo por reproducción de video de 10 segundos",
          "title": "Costo por reproducción de video de 10 segundos",
          "body": "Costo promedio por reproducción de video de 10 segundos. Este resultado se calcula dividiendo el importe gastado total por el número de reproducciones de video de 10 segundos."
        },
        {
          "alt": "Reproducciones de video de 3 segundos",
          "title": "Reproducciones de video de 3 segundos",
          "body": "Número de veces que se reprodujo tu video durante un total de 3 segundos o más, o durante el 97% de su duración total, lo que haya ocurrido primero."
        },
        {
          "alt": "Costo por reproducción de video de 3 segundos",
          "title": "Costo por reproducción de video de 3 segundos",
          "body": "Costo promedio por cada reproducción de video de 3 segundos. Este resultado se calcula dividiendo el importe gastado total por el número de reproducciones de video de 3 segundos."
        },
        {
          "alt": "Alcance",
          "title": "Alcance",
          "body": "Número de personas a las que se mostró tu anuncio."
        },
        {
          "alt": "Importe gastado",
          "title": "Importe gastado",
          "body": "Cantidad de dinero total que gastaste en la campaña de video durante el período en el que se programó para que se reproduzca. Se basa en el período que defines."
        },
        {
            "alt": "Reproducciones de video",
            "title": "Reproducciones de video",
            "body": "<strong>Reproducciones de video hasta el 25%:</strong><br>Número de veces que se reprodujo tu video hasta el 25% de su duración, incluidas las reproducciones que saltaron hasta este punto.<br><br><strong>Reproducciones de video hasta el 50%:</strong><br>Número de veces que se reprodujo tu video hasta el 50% de su duración, incluidas las reproducciones que saltaron hasta este punto.<br><br><strong>Reproducciones de video hasta el 75%:</strong><br>Número de veces que se reprodujo tu video hasta el 75% de su duración, incluidas las reproducciones que saltaron hasta este punto.<br><br><strong>Reproducciones de video hasta el 95%:</strong><br>Número de veces que se reprodujo tu video hasta el 95% de su duración, incluidas las reproducciones que saltaron hasta este punto.<br><br><strong>Reproducciones de video hasta el 100%:</strong><br>Número de veces que se reprodujo tu video hasta el 100% de su duración, incluidas las reproducciones que saltaron hasta este punto.<br><br><strong>Porcentaje del video reproducido:</strong><br>Porcentaje promedio del video que reprodujeron las personas. El resultado se calcula como el porcentaje promedio de reproducción del video de todas las reproducciones.<br><br><strong>Tiempo promedio de reproducción del video:</strong><br>Tiempo promedio que se reprodujo el video. El resultado se calcula dividiendo la duración de reproducción total del video por el número total de reproducciones del video, incluidas las reproducciones repetidas."
        }
      ]
  },
  {
      "_id":"c-550",
      "_parentId":"b-530",
      "_type":"component",
      "_component":"text",
      "_classes":"",
      "_layout":"full",
      "title":"Resultados para formatos por secuencia y con presentación",
      "displayTitle":"Resultados para formatos por secuencia y con presentación",
      "body":"<b>Secuencia</b>: podrás ver los resultados de rendimiento específicos del mosaico de anuncios con video y agregar al conjunto otros resultados de videos.<br><br><b>Presentación</b>: si usas el formato de presentación, verás los mismos resultados que con un video, los cuales se describen a continuación.",
      "instruction":"",
      "_pageLevelProgress": {
          "_isEnabled": true
      }
  },
  {
      "_id":"c-560",
      "_parentId":"b-540",
      "_type":"component",
      "_component":"graphic",
      "_classes":"",
      "_layout":"full",
      "title":"Resultados para el sonido",
      "displayTitle":"Resultados para el sonido",
      "body":"<strong>Activación/desactivación del sonido:</strong> como mencionamos anteriormente, muchas personas pueden estar en el trabajo o en una zona donde se debe hacer silencio cuando reproducen videos. Una práctica recomendada es diseñar el anuncio para que se reproduzca sin sonido. Recuerda que puedes usar pies de video, texto, subtítulos o logotipos. No obstante, incluye siempre un archivo de sonido para asegurar que el anuncio atraiga y cautive a quienes lo vean con el sonido activado.<br><br>Nos dimos cuenta lo importante que es para los anunciantes comprender si sus anuncios con video se consumen con el sonido activado o desactivado. Por lo tanto, les proporcionamos la capacidad de elaborar informes sobre estos resultados en las estadísticas de anuncios.<br><br>El resultado “Sonido del video” ofrece un desglose del número de veces que se vio tu anuncio con video con el sonido activado, en comparación con las veces que se vio con el sonido desactivado. Este resultado puede encontrarse como un “desglose” en todos los demás resultados y no es una opción dentro de las columnas personalizables.",
      "instruction":"",
      "_pageLevelProgress": {
        "_isEnabled": true
      },
      "_graphic": {
          "alt": "Captura de pantalla del menú desplegable con desglose",
          "src": "course/en/images/05_metrics/breakdown_dropdown.png",
          "attribution":""
      }
  },
  {
      "_id":"c-565",
      "_parentId":"b-550",
      "_type":"component",
      "_component":"text",
      "_classes":"",
      "_layout":"full",
      "title":"",
      "displayTitle":"",
      "body":"Para obtener datos de informes más específicos, visita <a href='https://www.facebook.com/facebookmedia/best-practices/video-metrics' target='_blank'>Conoce el rendimiento de tus videos en Facebook</a> o <a href='https://www.facebook.com/business/help/1792720544284355?helpref=faq_content' target='_blank'>Comprende los resultados de video en relación con los anuncios</a>.",
      "instruction":"",
      "_pageLevelProgress": {
          "_isEnabled": false
      }
  },
  {
    "_id": "c-570",
    "_parentId": "b-555",
    "_type": "component",
    "_component": "co-jump",
    "_classes": "color-test",
    "_preLinkBody": "Por último, exploremos algunos ",
    "_linkBody": "conceptos y mitos",
    "_postLinkBody": " sobre los videos.",
    "_link": "#/id/co-300",
    "_graphic": "adapt/css/assets/icon_nextPage.png",
    "_pageLevelProgress": {
        "_isEnabled": false
    }
  },
  {
      "_id":"c-580",
      "_parentId":"b-560",
      "_type":"component",
      "_component":"text",
      "_classes":"",
      "_layout":"full",
      "title":"",
      "displayTitle":"",
      "body":"Muchos términos y conceptos en este curso pueden sonar similares, y provocar confusión o ideas equivocadas. No obstante, existen diferencias y, solo para explicar algunas de ellas, derribaremos algunos mitos.",
      "instruction":"",
      "_pageLevelProgress": {
          "_isEnabled": false
      }
  },
  {
      "_id":"c-590",
      "_parentId":"b-570",
      "_type":"component",
      "_component":"text",
      "_classes":"",
      "_layout":"full",
      "title":"Conceptos sobre los videos",
      "displayTitle":"Conceptos sobre los videos",
      "body":"<h2>Impresiones frente a reproducciones</h2><br>Una <strong>impresión</strong> se contabiliza como el número de veces que la instancia de un anuncio con video ocupó el área visible de la pantalla de una persona por primera vez. En otras palabras, se trata del momento en que aparece en la pantalla del navegador de una computadora o una aplicación para celulares. Esta definición es la misma en los formatos y las ubicaciones.<br><br>Por otro lado, una <strong>reproducción</strong> se contabiliza cuando el anuncio con video empieza a reproducirse. Las reproducciones pueden ser automáticas (es decir, cuando un video se reproduce de forma predeterminada) o con clic (cuando una persona debe hacer clic en el botón de reproducción del video para que empiece).<hr><h2>Costo por impresión frente a costo por reproducción</h2><br>El <strong>costo por impresión</strong>, o CPM, es el costo promedio por 1.000 impresiones. Una impresión se contabiliza como el número de veces que la instancia de un anuncio ocupó el área visible de la pantalla de una persona por primera vez. Por ejemplo, si una persona ve un anuncio en dos momentos diferentes de un día, se contabiliza como dos impresiones. Si alguien ve un anuncio, desplaza la pantalla hacia abajo y después regresa hasta el mismo anuncio, se contabiliza como una impresión.<br><br>El CPM mide el importe gastado total en una campaña publicitaria, dividido por las impresiones y multiplicado por 1.000 Ejemplo: si gastaste 50 USD y obtuviste 10.000 impresiones, el CPM fue de 5 USD.<br><br>El <strong>costo por reproducción</strong>, o CPV, es el costo promedio de una reproducción de video. Actualmente, registramos el costo por reproducción de video de 10 segundos y el costo por reproducción de video de 3 segundos.<br><br><ul><li>El costo por reproducción de video de 10 segundos se calcula dividiendo el importe gastado total por el número de reproducciones de video de 10 segundos.</li><li>El costo por reproducción de video de 3 segundos se calcula dividiendo el importe gastado total por el número de reproducciones de video de 3 segundos.</li></ul>",
      "instruction":"",
      "_pageLevelProgress": {
          "_isEnabled": true
      }
  },
  {
      "_id":"c-595",
      "_parentId":"b-575",
      "_type":"component",
      "_component":"text",
      "_classes":"",
      "_layout":"full",
      "title":"Derribemos mitos",
      "displayTitle":"Derribemos mitos",
      "body":"<h2>Mito 1: en los videos, no hay diferencia entre las “reproducciones de video” y las “impresiones de video”.</h2><br>Mito derribado: las “reproducciones de video” y las “impresiones de video” son diferentes. Una <strong>impresión</strong> se relaciona con el momento en que aparece en la pantalla del navegador de una computadora o una aplicación para celulares. Por otra parte, una <strong>reproducción</strong> (automática o con clic) se relaciona con el momento en el que el video comienza a reproducirse en Facebook o Instagram.<hr><h2>Mito 2: las relaciones de aspecto del video se determinan según el objetivo que elegiste.</h2><br>Mito derribado: son la ubicación y el formato que eliges los que determinan la relación de aspecto de un anuncio con video. El objetivo determina las opciones de ubicación y formato.<hr><h2>Mito 3: el resultado de las reproducciones de video de 3 segundos informa el número de reproducciones de video que duraron 3 segundos.</h2><br>Mito derribado: el resultado de reproducciones de video de 3 segundos mide el número de veces que se reprodujo tu video durante al menos 3 segundos o más. La duración promedio de las reproducciones calculadas en el resultado de reproducciones de video de 3 segundos es en realidad mayor (en promedio, de 13 a 19 segundos).",
      "instruction":"",
      "_pageLevelProgress": {
          "_isEnabled": true
      }
  },
  {
    "_id": "c-600",
    "_parentId": "b-580",
    "_type": "component",
    "_component": "co-jump",
    "_classes": "color-test",
    "_preLinkBody": "Veamos lo que aprendiste en el siguiente ",
    "_linkBody": "resumen de los fundamentos de los videos",
    "_postLinkBody": ".",
    "_link": "#/id/co-350",
    "_graphic": "adapt/css/assets/icon_nextPage.png",
    "_pageLevelProgress": {
        "_isEnabled": false
    }
  },
  {
      "_id":"c-610",
      "_parentId":"b-590",
      "_type":"component",
      "_component":"text",
      "_classes":"",
      "_layout":"full",
      "title":"",
      "displayTitle":"",
      "body":"En este curso sobre los fundamentos de los videos abordamos mucha información. Resumamos los diversos temas relacionados con los videos.",
      "instruction":"",
      "_pageLevelProgress": {
          "_isEnabled": false
      }
  },
  {
      "_id":"c-620",
      "_parentId":"b-600",
      "_type":"component",
      "_component":"text",
      "_classes":"",
      "_layout":"full",
      "title":"Relación entre plataformas, ubicaciones y formatos",
      "displayTitle":"Relación entre plataformas, ubicaciones y formatos",
      "body":"Una vez que comprendas la diferencia entre plataformas, ubicaciones y formatos, podrás cumplir con éxito tus objetivos comerciales.<br><br><ul><li>La <strong>plataforma</strong> es la aplicación o el servicio en donde quieres que aparezca tu anuncio con video: <strong>Facebook, Instagram</strong> y <strong>Audience Network</strong>.</li><li>La ubicación determina en qué lugar de la plataforma se mostrará el video. Digamos que quieres que tu anuncio con video se ponga en circulación en las <strong>noticias de Instagram. Instagram</strong> es la <i>plataforma</i>, mientras que las <strong>noticias</strong> constituyen la <i>ubicación</i> dentro de la plataforma.<li>El formato es la forma de contenido que adquiere tu anuncio con video. Más sencillamente, se trata de cómo quieres que luzca el video. Por ejemplo, un <strong>solo video</strong>, una <strong>secuencia</strong>, una <strong>presentación</strong> o una <strong>colección.</strong></li></ul>",
      "instruction":"",
      "_pageLevelProgress": {
          "_isEnabled": true
      }
  },
  {
      "_id":"c-630",
      "_parentId":"b-610",
      "_type":"component",
      "_component":"text",
      "_classes":"",
      "_layout":"full",
      "title":"Detalles y especificaciones sobre los activos de video",
      "displayTitle":"Detalles y especificaciones sobre los activos de video",
      "body":"Esta sección incluye información sobre lo siguiente:<br><br><ul><li><strong>Tipos</strong> de activos de video<ul><li>MP4, MOV</li></ul></li><li><strong>Duraciones</strong> recomendadas de los archivos de video<ul><li>Tu anuncio con video no debería durar más de 15 segundos</li></ul></li><li><strong>Relaciones de aspecto</strong><ul><li>La comparación de tamaño de un video respecto de otro</li><li>Para optimizar la ubicación de tus campañas de video tanto en Facebook como en Instagram, te recomendamos crear videos con una relación de aspecto de 4:5.</li></ul></li><li>Recomendaciones sobre cómo <strong>encuadrar tu video</strong></li><li>Consideraciones de diseño para <strong>sonido activado y desactivado</strong></li></ul>",
      "instruction":"",
      "_pageLevelProgress": {
          "_isEnabled": true
      }
  },
  {
      "_id":"c-640",
      "_parentId":"b-620",
      "_type":"component",
      "_component":"text",
      "_classes":"",
      "_layout":"full",
      "title":"Resultados",
      "displayTitle":"Resultados",
      "body":"Tienes la capacidad de comprender el número de reproducciones que obtuvo el video, cuánto duró cada una y cuánto pagaste por ellas. Los resultados miden la eficacia de tus anuncios con video en Facebook, Instagram y Audience Network.<br><br>Puedes medir:<br><br><ul><li>Tiempos promedio de reproducción de video</li><li>Costo por reproducciones de video</li><li>Reproducciones de video de las estadísticas de la página</li><li>Alcance</li><li>Resultados para el sonido</li></ul>",
      "instruction":"",
      "_pageLevelProgress": {
          "_isEnabled": true
      }
  },
  {
    "_id": "c-650",
    "_parentId": "b-630",
    "_type": "component",
    "_component": "co-jump",
    "_classes": "color-test",
    "_preLinkBody": "Hagamos una rápida ",
    "_linkBody": "evaluación de conocimientos",
    "_postLinkBody": ".",
    "_link": "#/id/co-400",
    "_graphic": "adapt/css/assets/icon_nextPage.png",
    "_pageLevelProgress": {
        "_isEnabled": false
    }
  },
  {
      "_id":"c-660",
      "_parentId":"b-640",
      "_type":"component",
      "_component":"mcq",
      "_setCompletionOn":"inview",
      "_classes":"",
      "_layout":"full",
      "_attempts":1,
      "_shouldDisplayAttempts": false,
      "_questionWeight":1,
      "_isRandom":false,
      "_selectable":2,
      "title": "Pregunta 1 de 5",
      "displayTitle": "Pregunta 1 de 5",
      "body": "¿Cuáles de los términos que figuran debajo designan a una plataforma? (Elige dos opciones)",
      "instruction": "",
      "_items": [
          {
            "text": "Audience Network",
            "_shouldBeSelected":true
          },
          {
            "text": "Instagram",
            "_shouldBeSelected":true
          },
          {
            "text": "Video instream",
            "_shouldBeSelected":false
          },
          {
             "text": "Columna derecha",
            "_shouldBeSelected":false
          }
      ],
      "_feedback":{
          "correct":"Correcto. Audience Network e Instagram son dos de las plataformas de Facebook.",
          "_incorrect": {
            "notFinal": "",
            "final": "Incorrecto. Audience Network e Instagram son dos de las plataformas de Facebook."
          },
          "_partlyCorrect": {
            "notFinal": "",
            "final": ""
          }
      },
      "_buttons": {
      "_submit": {
        "buttonText": "Enviar",
        "ariaLabel": "Selecciona aquí para enviar la respuesta."
      },
      "_reset": {
        "buttonText": "Restablecer",
        "ariaLabel": ""
      },
      "_showCorrectAnswer": {
        "buttonText": "Respuesta correcta",
        "ariaLabel": ""
      },
      "_hideCorrectAnswer": {
        "buttonText": "Mi respuesta",
        "ariaLabel": ""
      },
      "_showFeedback": {
        "buttonText": "Mostrar comentarios",
        "ariaLabel": ""
      },
          "remainingAttemptsText": "intentos restantes",
          "remainingAttemptText": "último intento"
      },
      "_pageLevelProgress": {
          "_isEnabled": true
      }
  },
  {
      "_id":"c-670",
      "_parentId":"b-650",
      "_type":"component",
      "_component":"mcq",
      "_setCompletionOn":"inview",
      "_classes":"",
      "_layout":"full",
      "_attempts":1,
      "_shouldDisplayAttempts": false,
      "_questionWeight":1,
      "_isRandom":false,
      "_selectable":1,
      "title": "Pregunta 2 de 5",
      "displayTitle": "Pregunta 2 de 5",
      "body": "¿Cuál de los siguientes formatos se encuentra disponible solo durante un período determinado?",
      "instruction": "",
      "_items": [
          {
            "text": "Canvas",
            "_shouldBeSelected":false
          },
          {
            "text": "Instagram Stories",
            "_shouldBeSelected":true
          },
          {
             "text": "Video instream",
            "_shouldBeSelected":false
          },
          {
            "text": "Presentación",
            "_shouldBeSelected":false
          }
      ],
      "_feedback":{
          "correct":"Correcto. Instagram Stories solo está disponible durante un período específico.",
          "_incorrect": {
            "notFinal": "",
            "final": "Incorrecto. Instagram Stories solo está disponible durante un período específico."
          },
          "_partlyCorrect": {
            "notFinal": "",
            "final": ""
          }
      },
      "_buttons": {
      "_submit": {
        "buttonText": "Enviar",
        "ariaLabel": "Selecciona aquí para enviar la respuesta."
      },
      "_reset": {
        "buttonText": "Restablecer",
        "ariaLabel": ""
      },
      "_showCorrectAnswer": {
        "buttonText": "Respuesta correcta",
        "ariaLabel": ""
      },
      "_hideCorrectAnswer": {
        "buttonText": "Mi respuesta",
        "ariaLabel": ""
      },
      "_showFeedback": {
        "buttonText": "Mostrar comentarios",
        "ariaLabel": ""
      },
          "remainingAttemptsText": "intentos restantes",
          "remainingAttemptText": "último intento"
      },
      "_pageLevelProgress": {
          "_isEnabled": true
      }
  },
  {
      "_id":"c-680",
      "_parentId":"b-660",
      "_type":"component",
      "_component":"mcq",
      "_setCompletionOn":"inview",
      "_classes":"",
      "_layout":"full",
      "_attempts":1,
      "_shouldDisplayAttempts": false,
      "_questionWeight":1,
      "_isRandom":false,
      "_selectable":1,
      "title": "Pregunta 3 de 5",
      "displayTitle": "Pregunta 3 de 5",
      "body": "¿Qué diferencia hay entre una impresión y una reproducción?",
      "instruction": "",
      "_items": [
          {
            "text": "Una impresión se registra cuando el primer píxel de un anuncio ingresa en la pantalla del espectador, mientras que una reproducción ocurre cuando un video comienza a reproducirse.",
            "_shouldBeSelected":true
          },
          {
             "text": "Una impresión es el número de personas que ven tu video, mientras que una reproducción solo se calcula después de que transcurren 10 segundos del tiempo de reproducción.",
            "_shouldBeSelected":false
          },
          {
            "text": "No hay diferencia. Ambas calculan el número de veces que aparece tu video en el dispositivo móvil de una persona.",
            "_shouldBeSelected":false
          },
          {
            "text": "Una impresión se calcula cada vez que aparecen más de tres píxeles en la computadora o el dispositivo móvil de una persona, mientras que una reproducción se calcula una vez que se ve y se comparte un video.",
            "_shouldBeSelected":false
          }
      ],
      "_feedback":{
          "correct":"Correcto. Una impresión se registra cuando el primer píxel de un anuncio ingresa en la pantalla del espectador, mientras que una reproducción ocurre cuando un video comienza a reproducirse.",
          "_incorrect": {
            "notFinal": "",
            "final": "Incorrecto. Una impresión se registra cuando el primer píxel de un anuncio ingresa en la pantalla del espectador, mientras que una reproducción ocurre cuando un video comienza a reproducirse."
          },
          "_partlyCorrect": {
            "notFinal": "",
            "final": ""
          }
      },
      "_buttons": {
      "_submit": {
        "buttonText": "Enviar",
        "ariaLabel": "Selecciona aquí para enviar la respuesta."
      },
      "_reset": {
        "buttonText": "Restablecer",
        "ariaLabel": ""
      },
      "_showCorrectAnswer": {
        "buttonText": "Respuesta correcta",
        "ariaLabel": ""
      },
      "_hideCorrectAnswer": {
        "buttonText": "Mi respuesta",
        "ariaLabel": ""
      },
      "_showFeedback": {
        "buttonText": "Mostrar comentarios",
        "ariaLabel": ""
      },
          "remainingAttemptsText": "intentos restantes",
          "remainingAttemptText": "último intento"
      },
      "_pageLevelProgress": {
          "_isEnabled": true
      }
  },
  {
      "_id":"c-690",
      "_parentId":"b-670",
      "_type":"component",
      "_component":"mcq",
      "_setCompletionOn":"inview",
      "_classes":"",
      "_layout":"full",
      "_attempts":1,
      "_shouldDisplayAttempts": false,
      "_questionWeight":1,
      "_isRandom":false,
      "_selectable":1,
      "title": "Pregunta 4 de 5",
      "displayTitle": "Pregunta 4 de 5",
      "body": "¿Cuál de las siguientes opciones te permite hacer el video instream?",
      "instruction": "",
      "_items": [
          {
            "text": "Entregar anuncios de 30 segundos en una plataforma de Facebook",
            "_shouldBeSelected":false
          },
          {
             "text": "Entregar anuncios de 5 a 15 segundos dentro de videos en Facebook",
            "_shouldBeSelected":true
          },
          {
            "text": "Entregar el mismo anuncio en cada video",
            "_shouldBeSelected":false
          },
          {
            "text": "Entregar anuncios de 5 a 15 segundos en una colección",
            "_shouldBeSelected":false
          }
      ],
      "_feedback":{
          "correct":"Correcto. El video instream te permite entregar anuncios de 5 a 15 segundos dentro de videos en Facebook.",
          "_incorrect": {
            "notFinal": "",
            "final": "Incorrecto. El video instream te permite entregar anuncios de 5 a 15 segundos dentro de videos en Facebook."
          },
          "_partlyCorrect": {
            "notFinal": "",
            "final": ""
          }
      },
      "_buttons": {
      "_submit": {
        "buttonText": "Enviar",
        "ariaLabel": "Selecciona aquí para enviar la respuesta."
      },
      "_reset": {
        "buttonText": "Restablecer",
        "ariaLabel": ""
      },
      "_showCorrectAnswer": {
        "buttonText": "Respuesta correcta",
        "ariaLabel": ""
      },
      "_hideCorrectAnswer": {
        "buttonText": "Mi respuesta",
        "ariaLabel": ""
      },
      "_showFeedback": {
        "buttonText": "Mostrar comentarios",
        "ariaLabel": ""
      },
          "remainingAttemptsText": "intentos restantes",
          "remainingAttemptText": "último intento"
      },
      "_pageLevelProgress": {
          "_isEnabled": true
      }
  },
  {
      "_id":"c-700",
      "_parentId":"b-680",
      "_type":"component",
      "_component":"mcq",
      "_setCompletionOn":"inview",
      "_classes":"",
      "_layout":"full",
      "_attempts":1,
      "_shouldDisplayAttempts": false,
      "_questionWeight":1,
      "_isRandom":false,
      "_selectable":2,
      "title": "Pregunta 5 de 5",
      "displayTitle": "Pregunta 5 de 5",
      "body": "¿Cuáles son los dos tipos de archivo que se recomiendan subir? (Elige dos opciones)",
      "instruction": "",
      "_items": [
          {
            "text": "AVI",
            "_shouldBeSelected":false
          },
          {
            "text": "GIF",
            "_shouldBeSelected":false
          },
          {
            "text": "JPEG",
            "_shouldBeSelected":false
          },
          {
            "text": "MOV",
            "_shouldBeSelected":true
          },
          {
             "text": "MP4",
            "_shouldBeSelected":true
          }
      ],
      "_feedback":{
          "correct":"Correcto. Los dos tipos de archivo que se recomiendan subir son MP4 y MOV.",
          "_incorrect": {
            "notFinal": "",
            "final": "Incorrecto. Los dos tipos de archivo que se recomiendan subir son MP4 y MOV."
          },
          "_partlyCorrect": {
            "notFinal": "",
            "final": "Los dos tipos de archivo que se recomiendan subir son MP4 y MOV."
          }
      },
      "_buttons": {
      "_submit": {
        "buttonText": "Enviar",
        "ariaLabel": "Selecciona aquí para enviar la respuesta."
      },
      "_reset": {
        "buttonText": "Restablecer",
        "ariaLabel": ""
      },
      "_showCorrectAnswer": {
        "buttonText": "Respuesta correcta",
        "ariaLabel": ""
      },
      "_hideCorrectAnswer": {
        "buttonText": "Mi respuesta",
        "ariaLabel": ""
      },
      "_showFeedback": {
        "buttonText": "Mostrar comentarios",
        "ariaLabel": ""
      },
          "remainingAttemptsText": "intentos restantes",
          "remainingAttemptText": "último intento"
      },
      "_pageLevelProgress": {
          "_isEnabled": true
      }
  },
  {
      "_id": "c-710",
      "_parentId": "b-690",
      "_type":"component",
      "_component":"co-jump",
      "_classes":"color-test",
      "_autoComplete":true,
      "_preLinkBody":"Para terminar el curso, haz clic en el siguiente botón. Nota: <a href='#'>Haz clic aquí</a> para verificar que las barras de estado de los módulos se hayan completado.<br>",
      "_linkBody":"<div style = 'text-align:center;padding:8px;'><button class='buttons-action'><b>TERMINÉ ESTE CURSO</b></button></div><br> ",
      "_postLinkBody":"",
      "_link":"",
      "_pageLevelProgress": {
          "_isEnabled": false
      }
  }

]
