﻿[
	{
			"_id": "co-50",
			"_parentId": "course",
			"_type": "page",
			"_classes": "banner_01",
			"height":"570",
			"title": "Introducción",
			"displayTitle": "Introducción",
			"pageBody": "",
			"body": "<br>El consumo de videos está aumentando de manera exponencial. Te mostraremos cómo contar tu historia a través de un video de Facebook.",
			"_graphic": {
				"src": "course/en/images/contentObjects/landing_01.jpg",
				"alt": "Personas en una oficina mirando la pantalla de la computadora"
			},
			"linkText": "Ver",
			"durationLabel": "Duración:",
			"duration": "2 min",
			"_pageLevelProgress": {
				"_isEnabled": true
			}
	},
	{
		 "_id": "co-100",
		 "_parentId": "course",
		 "_type": "page",
		 "_classes": "banner_01",
		 "height":"570",
		 "title": "Comprender dónde se muestran los anuncios",
		 "displayTitle": "Comprender dónde se muestran los anuncios",
		 "pageBody": "",
		 "body": "Según el tipo de anuncio con video que crees, aparecerá en una variedad de plataformas, como Facebook e Instagram, y ubicaciones, como la sección de noticias.",
		 "_graphic": {
			 "src": "course/en/images/contentObjects/landing_02.jpg",
			 "alt": "Un hombre mirando un iPad en un autobús"
		 },
		 "linkText": "Ver",
		 "durationLabel": "Duración:",
		 "duration": "4 min",
		 "_pageLevelProgress": {
			 "_isEnabled": true
		 }
 },
 {
			"_id": "co-150",
			"_parentId": "course",
			"_type": "page",
			"_classes": "banner_01",
			"height":"570",
			"title": "Formatos de anuncios",
			"displayTitle": "Formatos de anuncios",
			"pageBody": "",
			"body": "<br>Hay varias maneras de elaborar un video atractivo, ya sea que crees un video estándar o una secuencia.",
			"_graphic": {
				"src": "course/en/images/contentObjects/landing_03.jpg",
				"alt": "Hombre escribiendo en una computadora portátil en una mesa de madera al aire libre"
			},
			"linkText": "Ver",
			"durationLabel": "Duración:",
			"duration": "5 min",
			"_pageLevelProgress": {
				"_isEnabled": true
			}
	},
	{
			 "_id": "co-200",
			 "_parentId": "course",
			 "_type": "page",
			 "_classes": "banner_01",
			 "height":"570",
			 "title": "Detalles y especificaciones sobre los activos de video",
			 "displayTitle": "Detalles y especificaciones sobre los activos de video",
			 "pageBody": "",
			 "body": "Conoce las prácticas recomendadas para la duración del video, las relaciones de aspecto y los tipos de activo, y aprende a diseñar teniendo en cuenta el sonido.",
			 "_graphic": {
				 "src": "course/en/images/contentObjects/landing_04.jpg",
				 "alt": "Una chica pinta un cerdo de arcilla de color rosa"
			 },
			 "linkText": "Ver",
			 "durationLabel": "Duración:",
			 "duration": "5 min",
			 "_pageLevelProgress": {
				 "_isEnabled": true
			 }
	 },
	 {
				"_id": "co-250",
				"_parentId": "course",
				"_type": "page",
				"_classes": "banner_01",
				"height":"570",
				"title": "Resultados",
				"displayTitle": "Resultados",
				"pageBody": "",
				"body": "Facebook ofrece resultados de rendimiento para que puedas determinar si tu anuncio con video funciona. Puedes obtener información sobre el público, las ventas de productos y el alcance.",
				"_graphic": {
					"src": "course/en/images/contentObjects/landing_05.jpg",
					"alt": "Mujer sentada en una cama mirando su computadora portátil"
				},
				"linkText": "Ver",
				"durationLabel": "Duración:",
				"duration": "6 min",
				"_pageLevelProgress": {
					"_isEnabled": true
				}
		},
		{
				 "_id": "co-300",
				 "_parentId": "course",
				 "_type": "page",
				 "_classes": "banner_01",
				 "height":"570",
				 "title": "Conceptos y mitos sobre los videos",
				 "displayTitle": "Conceptos y mitos sobre los videos",
				 "pageBody": "",
				 "body": "Circulan varias ideas erróneas y mitos sobre los videos de Facebook, que te explicaremos aquí.",
				 "_graphic": {
					 "src": "course/en/images/contentObjects/landing_06.jpg",
					 "alt": "Mujer trabaja en su computadora portátil en un escritorio en su casa"
				 },
				 "linkText": "Ver",
				 "durationLabel": "Duración:",
				 "duration": "4 min",
				 "_pageLevelProgress": {
					 "_isEnabled": true
				 }
		 },
		 {
					"_id": "co-350",
					"_parentId": "course",
					"_type": "page",
					"_classes": "banner_01",
					"height":"570",
					"title": "Resumen de los fundamentos de los videos",
					"displayTitle": "Resumen de los fundamentos de los videos",
					"pageBody": "",
					"body": "Revisa el resumen de este curso antes de completar la evaluación de conocimientos.",
					"_graphic": {
						"src": "course/en/images/contentObjects/landing_07.jpg",
						"alt": "Mujer escribe en su computadora en una oficina"
					},
					"linkText": "Ver",
					"durationLabel": "Duración:",
					"duration": "2 min",
					"_pageLevelProgress": {
						"_isEnabled": true
					}
			},
			{
					 "_id": "co-400",
					 "_parentId": "course",
					 "_type": "page",
					 "_classes": "banner_01",
					 "height":"570",
					 "title": "Evaluación de conocimientos",
					 "displayTitle": "Evaluación de conocimientos",
					 "pageBody": "",
					 "body": "Veamos si captaste cuáles son los fundamentos de los videos.",
					 "_graphic": {
						 "src": "course/en/images/contentObjects/landing_08.jpg",
						 "alt": "Mujer mira su teléfono celular en un escritorio"
					 },
					 "linkText": "Ver",
					 "durationLabel": "Duración:",
					 "duration": "4 min",
					 "_pageLevelProgress": {
						 "_isEnabled": true
					 }
			 }

]
